6_dff/dff.vcd
$date
     Dec 13, 2023       18:31:49
$end

$version
 SystemC 3.0.0_pub_rev_20231124-Accellera --- Dec 12 2023 11:57:24
$end

$timescale
     1 ps
$end

$scope module SystemC $end
$var wire    1  aaaaa  clk       $end
$var wire    1  aaaab  rst       $end
$var wire    1  aaaac  d       $end
$var wire    1  aaaad  q       $end
$var wire    1  aaaae  qb       $end
$upscope $end
$enddefinitions  $end

$comment
All initial values are dumped below at time 0 sec = 0 timescale units.
$end

$dumpvars
1aaaaa
0aaaab
0aaaac
0aaaad
1aaaae
$end

#1000
1aaaab

#5000
0aaaaa

#10000
1aaaaa

#13000
1aaaac

#15000
0aaaaa

#20000
1aaaaa
1aaaad
0aaaae

#25000
0aaaaa

#30000
1aaaaa
0aaaac
0aaaad
1aaaae

#33000
1aaaac

#35000
0aaaaa

#40000
1aaaaa
1aaaad
0aaaae

#43000
0aaaac

#45000
0aaaaa

#50000
1aaaaa
0aaaad
1aaaae

#54000
1aaaac

#55000
0aaaaa

#60000
1aaaaa
1aaaad
0aaaae

