10_shift_register/siso_sr.vcd
$date
     Dec 13, 2023       20:09:24
$end

$version
 SystemC 3.0.0_pub_rev_20231124-Accellera --- Dec 12 2023 11:57:24
$end

$timescale
     1 ps
$end

$scope module SystemC $end
$var wire    1  aaaaa  clk       $end
$var wire    1  aaaab  rst       $end
$var wire    1  aaaac  din       $end
$var wire    1  aaaad  dout       $end
$upscope $end
$enddefinitions  $end

$comment
All initial values are dumped below at time 0 sec = 0 timescale units.
$end

$dumpvars
1aaaaa
0aaaab
0aaaac
0aaaad
$end

#1000
1aaaab

#2000
1aaaac

#5000
0aaaaa

#10000
1aaaaa

#15000
0aaaaa

#20000
1aaaaa

#24000
0aaaac

#25000
0aaaaa

#30000
1aaaaa

#35000
0aaaaa
1aaaac

#40000
1aaaaa
1aaaad

#45000
0aaaaa

#46000
0aaaac

#50000
1aaaaa

#55000
0aaaaa

#60000
1aaaaa
0aaaad

#65000
0aaaaa

#70000
1aaaaa
1aaaad

